Dividend Sleuthing with R
…
We can see that XOM has a nice history of increasing its dividend.

For my brain, it’s easier to work through the next steps if we put 2018 as the first observation. Let’s use arrange(desc(year)) to accomplish that.

divs_total %>% 
  group_by(ticker) %>% 
  mutate(div_increase = case_when(div_total > lag(div_total, 1) ~ 1, 
                                  TRUE ~ 0)) %>% 
  arrange(desc(year)) %>%
  arrange(ticker) %>% 
  slice(1:10)

# A tibble: 282 x 4
# Groups:   ticker [29]
    year ticker div_total div_increase
                  
 1  2018 AAPL        2.82            1
 2  2017 AAPL        2.46            1
 3  2016 AAPL        2.23            1
 4  2015 AAPL        2.03            0
 5  2014 AAPL        7.28            0
 6  2013 AAPL       11.8             1
 7  2012 AAPL        5.3             1
 8  2011 AAPL        0               0
 9  2010 AAPL        0               0
10  2009 AAPL        0               0
# … with 272 more rows

Here I sliced off the first 10 rows of each group, so I could glance 
with my human eyes and see if anything looked weird or plain wrong. Try 
filtering by AMZN or FB or GOOG, companies we know haven’t paid a dividend. Make sure we see all zeroes. How about, say, MSFT?

divs_total %>% 
  group_by(ticker) %>% 
  mutate(div_increase = case_when(div_total > lag(div_total, 1) ~ 1, 
                                  TRUE ~ 0)) %>% 
  arrange(desc(year)) %>%
  arrange(ticker) %>% 
  filter(ticker == "MSFT")

# A tibble: 29 x 4
# Groups:   ticker [1]
    year ticker div_total div_increase
                  
 1  2018 MSFT        1.72            1
 2  2017 MSFT        1.59            1
 3  2016 MSFT        1.47            1
 4  2015 MSFT        1.29            1
 5  2014 MSFT        1.15            1
 6  2013 MSFT        0.97            1
 7  2012 MSFT        0.83            1
 8  2011 MSFT        0.68            1
 9  2010 MSFT        0.55            1
10  2009 MSFT        0.52            1
# … with 19 more rows
…
Let’s take it piece-by-painstaking-piece. If we just slice(which(div_increase == 0)), we get every instance of a dividend increase equal to 0.

divs_total %>% 
  group_by(ticker) %>%
  mutate(div_increase = case_when(div_total > lag(div_total, 1) ~ 1, 
                                  TRUE ~ 0)) %>% 
  arrange(desc(year)) %>%
  arrange(ticker) %>% 
  slice(which(div_increase == 0))

# A tibble: 319 x 4
# Groups:   ticker [29]
    year ticker div_total div_increase
                  
 1  2015 AAPL        2.03            0
 2  2014 AAPL        7.28            0
 3  2011 AAPL        0               0
 4  2010 AAPL        0               0
 5  2009 AAPL        0               0
 6  2008 AAPL        0               0
 7  2007 AAPL        0               0
 8  2006 AAPL        0               0
 9  2005 AAPL        0               0
10  2004 AAPL        0               0
# … with 309 more rows

If we use slice(min(which(div_increase == 0))), we get the first instance, for each group, of a dividend increase of zero.

divs_total %>% 
  group_by(ticker) %>%
  mutate(div_increase = case_when(div_total > lag(div_total, 1) ~ 1, 
                                  TRUE ~ 0)) %>% 
  arrange(desc(year)) %>%
  arrange(ticker) %>% 
  slice(min(which(div_increase == 0)))

# A tibble: 29 x 4
# Groups:   ticker [29]
    year ticker div_total div_increase
                  
 1  2015 AAPL       2.03             0
 2  2018 AMZN       0                0
 3  2011 BA         1.68             0
 4  2013 BAC        0.04             0
 5  2014 C          0.04             0
 6  2017 CMCSA      0.473            0
 7  2010 CSCO       0                0
 8  2005 CVX        1.75             0
 9  2009 DIS        0.35             0
10  2018 FB         0                0
# … with 19 more rows

The magic comes from seq_len. If we use slice(seq_len(min(which(div_increase == 0)))), then we slice the rows from row 1 (which recall is the year 2018) through the first time we see a dividend increase of 0. seq_len()
 creates a sequence of 1 through some number, in this case, we create a 
sequence of 1 through the row number where we first see a dividend 
increase of 0 (there’s a good tutorial on seq_len here). And that’s what we want to keep.

divs_total %>% 
  group_by(ticker) %>%
  mutate(div_increase = case_when(div_total > lag(div_total, 1) ~ 1, 
                                  TRUE ~ 0)) %>% 
  arrange(desc(year)) %>%
  arrange(ticker) %>% 
  slice(seq_len(min(which(div_increase == 0))))

# A tibble: 240 x 4
# Groups:   ticker [29]
    year ticker div_total div_increase
                  
 1  2018 AAPL        2.82            1
 2  2017 AAPL        2.46            1
 3  2016 AAPL        2.23            1
 4  2015 AAPL        2.03            0
 5  2018 AMZN        0               0
 6  2018 BA          6.84            1
 7  2017 BA          5.68            1
 8  2016 BA          4.36            1
 9  2015 BA          3.64            1
10  2014 BA          2.92            1
# … with 230 more rows
Now let’s order our data by those years of increase, so that the 
company with the longest consecutive years of increase is at the top.

divs_total %>% 
  group_by(ticker) %>%
  mutate(div_increase = case_when(div_total > lag(div_total, 1) ~ 1, 
                                  TRUE ~ 0)) %>% 
  arrange(desc(year)) %>%
  arrange(ticker) %>% 
  slice(seq_len(min(which(div_increase ==0)))) %>% 
  mutate(div_inc_consec = sum(div_increase)) %>% 
  slice(1) %>% 
  arrange(desc(div_inc_consec))

# A tibble: 29 x 5
# Groups:   ticker [29]
    year ticker div_total div_increase div_inc_consec
                            
 1  2018 PEP         3.59            1             20
 2  2018 JNJ         3.54            1             16
 3  2018 XOM         3.23            1             16
 4  2018 CVX         4.48            1             13
 5  2018 MSFT        1.72            1             13
 6  2018 PG          2.84            1             13
 7  2018 T           2               1             12
 8  2018 DIS         1.72            1              9
 9  2018 HD          4.12            1              9
10  2018 UNH         3.45            1              9
# … with 19 more rows
…
