Looking back on 2018: part 1
…
I love highcharter and in the next month I’ll be launching a datacamp course that covers Highcharter for Finance but, I must say, it doesn’t have a good way to facet_wrap()
 and build separate charts for each sector. We can dream about some sort
 of hc_facet function but for now we’ll need to build a custom function 
for that job, similar to what we did for the jobs report.

We start by spreading our data to wide format, because we’re going to build a chart using each column.

sector_returns_2018_wide <- 
  sector_returns_2018 %>% 
  select(-adjClose) %>% 
  spread(sector, daily_return)

sector_returns_2018_wide

# A tibble: 251 x 12
   date       `Consumer Discr… `Consumer Stapl…   Energy Financials
   <date>                <dbl>            <dbl>    <dbl>      <dbl>
 1 2018-01-02         0.0151          -0.00617   1.63e-2   0.000358
 2 2018-01-03         0.00458         -0.000354  1.49e-2   0.00536 
 3 2018-01-04         0.00327          0.00283   6.02e-3   0.00922 
 4 2018-01-05         0.00789          0.00440  -4.00e-4   0.00282 
 5 2018-01-08         0.00118          0.00246   5.98e-3  -0.00141 
 6 2018-01-09         0.00196         -0.00140  -2.52e-3   0.00772 
 7 2018-01-10        -0.000686        -0.00493  -1.20e-3   0.00836 
 8 2018-01-11         0.0161          -0.00141   2.03e-2   0.00484 
 9 2018-01-12         0.0128           0.000353  9.60e-3   0.00893 
10 2018-01-16        -0.00717          0.00458  -1.27e-2  -0.00274 
# … with 241 more rows, and 7 more variables: `Health Care` <dbl>,
#   Industrials <dbl>, `Information Technology` <dbl>, Market <dbl>,
#   Materials <dbl>, `Real Estate` <dbl>, Utilities <dbl>
…
