Tech Dividends, Part 2
…
Now, we calculate the yield with mutate(yield = total_div/close).

barrons_dividends %>% 
  group_by(symbol) %>% 
  slice(n()) %>% 
  mutate(total_div = dividends * 4) %>% 
  left_join(barrons_price, by = "symbol") %>% 
  select(symbol, total_div, close) %>% 
  mutate(yield = total_div/close)

# A tibble: 81 x 4
# Groups:   symbol [9]
   symbol total_div close  yield
            
 1 AAPL        3.08 193.  0.0159
 2 AAPL        3.08 197   0.0156
 3 AAPL        3.08 199.  0.0155
 4 AAPL        3.08 203.  0.0151
 5 AAPL        3.08 201.  0.0153
 6 AAPL        3.08 200.  0.0154
 7 AAPL        3.08 209.  0.0147
 8 AAPL        3.08 203.  0.0152
 9 AAPL        3.08 202.  0.0153
10 CSCO        1.4   51.4 0.0273
# … with 71 more rows
…
